{
  "infos" : {
    "name"    : "user-login"
  },
  "parameters" : {
    "email" : {
      "name"        : "email",
      "type"        : "string",
      "required"    : true,
      "table"       : "users"
    },
    "password" : {
      "name"        : "password",
      "type"        : "password",
      "required"    : true,
      "table"       : "users"
    }
  }
}